%YAML 1.1
%TAG !u! tag:unity3d.com,2011:
--- !u!162 &1
EditorUserSettings:
  m_ObjectHideFlags: 0
  serializedVersion: 4
  m_ConfigSettings:
    RecentlyUsedScenePath-0:
      value: 224247031146460929290d2f1528560459241b2f222d357f1c085209edee316ad3c678fce9332b25
      flags: 0
    RecentlyUsedScenePath-1:
      value: 224247031146460929290d2f1528560459241b2f222d357f1c085209edee316bd3c678fce9332b25
      flags: 0
    RecentlyUsedScenePath-2:
      value: 224247031146460929290d2f1528560459241b2f222d357f1c085209edee316cd3c678fce9332b25
      flags: 0
    RecentlyUsedScenePath-3:
      value: 224247031146460929290d2f1528560459241b2f222d357f1c085209edee316dd3c678fce9332b25
      flags: 0
    RecentlyUsedScenePath-4:
      value: 224247031146460929290d2f1528560459241b2f222d357f1c085200f6e1262cacf238e0f323
      flags: 0
    RecentlyUsedScenePath-5:
      value: 224247031146460929290d2f1528560459241b2f222d357f1c085209edee316aacf238e0f323
      flags: 0
    RecentlyUsedScenePath-6:
      value: 224247031146460929290d2f1528560459241b2f222d357f1c085209edee316cacf238e0f323
      flags: 0
    RecentlyUsedScenePath-7:
      value: 224247031146460929290d2f1528560459241b2f222d357f1c085209edee316bacf238e0f323
      flags: 0
    RecentlyUsedScenePath-8:
      value: 224247031146460929290d2f1528560459241b2f222d357f1c085209edee3169acf238e0f323
      flags: 0
    RecentlyUsedScenePath-9:
      value: 224247031146460929290d2f1528560459241b2f222d357f1c085209edee316dacf238e0f323
      flags: 0
    vcSharedLogLevel:
      value: 0d5e400f0650
      flags: 0
  m_VCAutomaticAdd: 1
  m_VCDebugCom: 0
  m_VCDebugCmd: 0
  m_VCDebugOut: 0
  m_SemanticMergeMode: 2
  m_VCShowFailedCheckout: 1
  m_VCOverwriteFailedCheckoutAssets: 1
  m_VCProjectOverlayIcons: 1
  m_VCHierarchyOverlayIcons: 1
  m_VCOtherOverlayIcons: 1
  m_VCAllowAsyncUpdate: 1
